Webscrape the BBC
…
# then, use the unnest_tokens() function from tidytext to tokenize
# this function takes three inputs
# 1: the dataframe with the text you want to tokenize
# 2: the name of the column with the text data
# 3: the name you want to call the tokenized text column
d <- unnest_tokens(d, input = 'text', output = 'word')

Some preliminary text analysis

# frequency distribution of all words
d |> 
  count(word) |> 
  arrange(-n)

# A tibble: 603 × 2
   word        n
   <chr>   <int>
 1 the        50
 2 of         35
 3 in         31
 4 a          27
 5 to         27
 6 and        19
 7 on         16
 8 have       14
 9 was        14
10 iranian    13
# … with 593 more rows

# frequency distribution of words, removing stop words like "the" and "of"
d |> 
  anti_join(get_stopwords(language = 'en', source = 'smart')) |> 
  count(word) |> 
  arrange(-n)

# A tibble: 468 × 2
   word           n
   <chr>      <int>
 1 iranian       13
 2 protests       8
 3 bbc            7
 4 death          6
 5 iran           6
 6 iran's         5
 7 persian        5
 8 protesters     5
 9 body           4
10 content        4
# … with 458 more rows
…
Sentiment Analysis

If I want to know if this article is happy or sad, one approach is to count up the number of happy words vs the number of sad words. (Positive vs. negative sentiment).

# take our tokenized dataset and merge it with the sentiment lexicon
d |> 
  # only keep words from the BBC article if they appear in the sentiment lexicon
  inner_join(get_sentiments(lexicon = 'bing'))

# A tibble: 95 × 2
   word     sentiment
   <chr>    <chr>    
 1 protests negative 
 2 killed   negative 
 3 sham     negative 
 4 protests negative 
 5 lead     positive 
 6 freedom  positive 
 7 support  positive 
 8 protests negative 
 9 leading  positive 
10 exile    negative 
# … with 85 more rows
…
